ur Gay lol

' ' ' ' ' ' ' ; ' ' ' ' ' ' ' ' ' ' ' ' ; # # # # # # # # # # # # # # # # + , # + , ' 
 ' ' ' ' ' ' ; ; ; ; ; ; ; ; ; ; ' ' ' ' + # # # # # # # # # # # # # # # # + # : + # : 
 ; ; ; ; ; ; ; ; ; ; ; ; ; ; ; ; ' ' ' ' # # # # # # # # # # # # # # # # # # + + + # + 
 ' ' ' ; ; ; ' ' ' ; ; ; ; ; ; ; ; ; ; + # # # # # # # # # # # # # # # # # # # + ' ; # 
 ' ' ' ' ' ' ' ' ' ' ; ' ' ' ; ; ' ' ' # # # # # # # # # # # # # # # # # # # # + + : + 
 ; ; ; ; ; ; ' ' ' ' ' ' ' ' ' ' ; ' + # # @ # # # # # # # + # # # # # # # # # + + : ' 
 ' ' ' ' ' ' ' ' ' ' ' ' ' ' ' ' ; ; + # # # # # # # # + + + + ' + + + # # # + + + ' ; 
 ' ' ' ' ' ' ' ' ' ' ' ' ' ' ' ' ; ' # # # # # # # # + + + + ' ' ' ' + + + # # + + ' : 
 ; ; ; ' ' ' ' ' ; ; ; ' ' ' ' ; + # # # # # # # # # + ' ' ' ' ' ' ' ' ' ' + + ; . ; ' 
 ; ; ; ' ' ' ' ' ; ; ; ' ' ' ' ' + # # # # # # # # # + ' ' ' ' ' ; ; ' ; ; ; : , ` ' + 
 ' ' ' ; ; ; ' ' ' ' ' ' ' ' ' ' + # # # # # # # + + ' ' ' ' ' ; ; ; ; ; ; ; ; : ` @ ' 
 ; ; ; ' ' ' ' ' ' ' ' ' ' ' ' ' # # # # # # # # # + + + ' ' ' ' ' ; ; ; ; ; : , ` + ' 
 ' ' ' ' ' ' ' ' ' ' ' ' ' ' ' ' # # # # # # # # # + + + ' ' ' ; ; ; ; ; ; ; : , : + + 
 ' ' ' ' ' ' ' ' ' ' ' ' ' ' + ' # # # # # + # # + + ' ' ' ' ' ; ; ; ; ; ; ; : . , # + 
 ' ' ' ' ' ' ' ' ' ' + ' ' ' ' ' # # # # # # # # + ' ' ' + ' ; ' + ' ; ; ; ; : : : # # 
 ' ' ' ' ' ' ' ' ' ' + ' ' ' ' + # # # # # # # # + ' ' ' ' ' + ' ' ' ' ' ; ' : # # # # 
 ' ' ' ' ' ' ' ' ' ' ' ' + + + + + # # # # # # # + + ' ; ; ; ; ; ; ; ' ; : ; . # # # # 
 ' ' ' + + + + + + + + + + + + + + # # # # # # # + + ' ; ; ; ; ; ; ; ' ; , ; . # # # # 
 ' ' ' + + + + + + + + + + + + + + # # # # # # + + + ' ' ; ; : : ; ' ' ; . , ; + # # # 
 + + + + + + + + + + + + + + + + + # # # # + + + ' ' ' ' ; ; ; ; ; ' ' ' , . # # # # # 
 ' ' ' ' ' ' + + + + + + + + + # # # # # + + + + ' ' ' ' ; ; : ; ' + ' ; , : # # # # # 
 + + + + + + + + + + + + + + + # # # # # + + + ' ' ' ' ' ; ; ; ; ; ' ' ' , , # # # # # 
 + + + ' ' ' + + # # + + # # # # # # # # + + ' ' ' + ' ' ; ; ; ; ' ' ; , ' : : @ # # # 
 + + + + + + + + + + # # # # # # # # # # + + ' ' ' ' + ' ' ' ' ' ' ' : + ; + + + + + + 
 # + ' + + + ' ' # + # # # # # # # # # # + ' ' ' ; ' ' ' ' ' ; ' ; : ; # # ' + ' ; ` . 
 # + + ' ' ' + + + + # # # # # # # # # # + ' ' ; ; ; ; ' ' ' ' ; ' : # # # ' # # # @ + 
 ' + + + + # # # # # # # # # # # # # # # # ; ; ; ; ; ; ; ; : , , + # # # # # # + ' # # 
 + + # # # # # # # # # # # # # # # # # # # + ' ; ; ; : : : , . ` + + # # # # # # + # + 
 # # # # # # # # # # # # # # # # # # # # # + ; ; ; : , , : , . ` ; # # # # # # # + + # 
 # # # # # # # # # # # # # # # # # # # # # # : ; : : , , : , , , ; # # # # # # # + ; # 
 # # # # # # # # # # # # # # # # # # # # # # ' : : : : , : : , , + # # # # # # # + + + 
 # # # # # # # # # # # # # # # # # # # # # # + : : : , : , , , , + # # # # # # # # # ; 
 + # # # # # # # # # # # # # # # # # # # # # @ ; : : , : , : : : # + # # # + # # # # ' 
 + + # # # # # # # # # # # # # # # # # # # # # # @ # + ; : : , , + # # @ # + # # # # ' 
 + + # # # # # # # # # # # # @ @ # # # # # # # # @ # + + ' + , , + @ + # + @ # # # # ' 
 + # # # # # # # # # # # # # ' + + # @ + # ' # @ # @ ' # @ @ , , # + @ @ + @ # # # # ' 
 + # # # # # # # # # # # # # x D # i n # t h e ' c h a t # p l e a s e , @ # # # # # ' 
 + # # # # # # # # # # # # # ` ` # + @ + # # ; ' + ' . @ . @ : : # @ , : @ @ # # # # ' 
 # + # # # # # # # # # # # # # @ @ @ # # # # @ @ # @ @ : + + : : @ @ # # @ @ # # # # ' 
 # + # # # # # # # # # # # # # # # # # # # # + @ # # @ # @ # : : @ @ + # + # # # # # ' 
 # + # # # # # # # # # # # # # # # # # # # # # ' : : : : : : : ; # # # # # # # # # # ' 
 # + # # # # # # # # # # # # # # # # # # # # # ' : : : : : : : ; # # # # # # # # # # ' 
 # + # # # # # # # # # # # # # # # # # # # # # ' : : : : : : : ; # # # # # # # # # # ' 